[
  {
    "id": "d7ee5ad5-a34a-4504-99e3-83b4220d98c8",
    "lokaal": "T4.03",
    "starttijd": 1569249000000,
    "eindtijd": 1569256200000,
    "changed": false,
    "docentcode": null,
    "roosterdatum": "2019-09-23T00:00:00Z",
    "commentaar": "Hoorcollege - Creativiteit voor ICT",
    "status": false,
    "groepcode": "ICTPV-CREAb",
    "vaknaam": "Creativiteit voor ICT",
    "vakcode": "Creativiteit voor ICT",
    "docentnamen": [ "M. Verkuijl" ]
  },
  {
    "id": "b17e9dac-34a0-41e8-9a10-277040a35f36",
    "lokaal": "T4.32",
    "starttijd": 1569853800000,
    "eindtijd": 1569861000000,
    "changed": false,
    "docentcode": null,
    "roosterdatum": "2019-09-30T00:00:00Z",
    "commentaar": "Hoorcollege - Creativiteit voor ICT",
    "status": false,
    "groepcode": "ICTPV-CREAb",
    "vaknaam": "Creativiteit voor ICT",
    "vakcode": "Creativiteit voor ICT",
    "docentnamen": [ "M. Verkuijl" ]
  },
  {
    "id": "0e1614b2-1044-4d43-bfe9-3679fbc44d6e",
    "lokaal": "T4.17",
    "starttijd": 1570458600000,
    "eindtijd": 1570465800000,
    "changed": false,
    "docentcode": null,
    "roosterdatum": "2019-10-07T00:00:00Z",
    "commentaar": "Hoorcollege - Creativiteit voor ICT",
    "status": false,
    "groepcode": "ICTPV-CREAb",
    "vaknaam": "Creativiteit voor ICT",
    "vakcode": "Creativiteit voor ICT",
    "docentnamen": [ "M. Verkuijl" ]
  },
  {
    "id": "d441318e-e0ae-4f4c-a2bd-71dc6245b2e0",
    "lokaal": "T4.18",
    "starttijd": 1571041800000,
    "eindtijd": 1571049000000,
    "changed": false,
    "docentcode": null,
    "roosterdatum": "2019-10-14T00:00:00Z",
    "commentaar": "Hoorcollege - Creativiteit voor ICT",
    "status": false,
    "groepcode": "ICTPV-CREAb",
    "vaknaam": "Creativiteit voor ICT",
    "vakcode": "Creativiteit voor ICT",
    "docentnamen": [ "M. Verkuijl" ]
  },
  {
    "id": "2e5727e7-4a0a-4436-98c7-fc06917fe548",
    "lokaal": "",
    "starttijd": 1571646600000,
    "eindtijd": 1571697000000,
    "changed": false,
    "docentcode": null,
    "roosterdatum": "2019-10-21T00:00:00Z",
    "commentaar": "- Collegeluw",
    "status": false,
    "groepcode": "ICTPV-CREAb",
    "vaknaam": "",
    "vakcode": "",
    "docentnamen": []
  },
  {
    "id": "e06846b8-b38c-4918-aab9-911d84a344de",
    "lokaal": "",
    "starttijd": 1571733000000,
    "eindtijd": 1571783400000,
    "changed": false,
    "docentcode": null,
    "roosterdatum": "2019-10-22T00:00:00Z",
    "commentaar": "- Collegeluw",
    "status": false,
    "groepcode": "ICTPV-CREAb",
    "vaknaam": "",
    "vakcode": "",
    "docentnamen": []
  },
  {
    "id": "77c3f451-48d6-4054-a49b-264014077fb0",
    "lokaal": "",
    "starttijd": 1571819400000,
    "eindtijd": 1571869800000,
    "changed": false,
    "docentcode": null,
    "roosterdatum": "2019-10-23T00:00:00Z",
    "commentaar": "- Collegeluw",
    "status": false,
    "groepcode": "ICTPV-CREAb",
    "vaknaam": "",
    "vakcode": "",
    "docentnamen": []
  },
  {
    "id": "19a5fd6c-816a-498d-ba11-65d0c6509884",
    "lokaal": "",
    "starttijd": 1571905800000,
    "eindtijd": 1571956200000,
    "changed": false,
    "docentcode": null,
    "roosterdatum": "2019-10-24T00:00:00Z",
    "commentaar": "- Collegeluw",
    "status": false,
    "groepcode": "ICTPV-CREAb",
    "vaknaam": "",
    "vakcode": "",
    "docentnamen": []
  },
  {
    "id": "63858def-0517-4c78-b2da-45d5762a897e",
    "lokaal": "",
    "starttijd": 1571992200000,
    "eindtijd": 1572042600000,
    "changed": false,
    "docentcode": null,
    "roosterdatum": "2019-10-25T00:00:00Z",
    "commentaar": "- Collegeluw",
    "status": false,
    "groepcode": "ICTPV-CREAb",
    "vaknaam": "",
    "vakcode": "",
    "docentnamen": []
  },
  {
    "id": "c5d8f6a2-2d78-4cd2-9ee9-53bffef1ff33",
    "lokaal": "",
    "starttijd": 1572078600000,
    "eindtijd": 1572129000000,
    "changed": false,
    "docentcode": null,
    "roosterdatum": "2019-10-26T00:00:00Z",
    "commentaar": "- Collegeluw",
    "status": false,
    "groepcode": "ICTPV-CREAb",
    "vaknaam": "",
    "vakcode": "",
    "docentnamen": []
  },
  {
    "id": "f3d1a3c2-d8d2-4544-a6f6-70f4e1a4d12e",
    "lokaal": "",
    "starttijd": 1573201800000,
    "eindtijd": 1573237800000,
    "changed": false,
    "docentcode": null,
    "roosterdatum": "2019-11-08T00:00:00Z",
    "commentaar": "- Opendag",
    "status": false,
    "groepcode": "ICTBIM1a, ICTBIM1a1, ICTBIM1a2, ICTBIM1a3, ICTBIM1a4, ICTBIM1a5, ICTBIM1b, ICTBIM1b1, ICTBIM1b2, ICTBIM1b3, ICTBIM1b4, ICTBIM1b5, ICTBIM1b6, ICTBIM1c, ICTBIM1c1, ICTBIM1c2, ICTBIM1c3, ICTBIM1c4, ICTBIM1c5, ICTBIM1d, ICTBIM1d1, ICTBIM1d2, ICTBIM1d3, ICTBIM1d4, ICTBIM1d5, ICTBIM1tt, ICTBIM3a, ICTBIM3a1, ICTBIM3a2, ICTBIM3a3, ICTBIM3a4, ICTBIM3a5, ICTBIM3a6, ICTBIM3b, ICTBIM3b1, ICTBIM3b2, ICTBIM3b3, ICTBIM3b4, ICTBIM3b5, ICTBIM3b6, ICTBIM3tt, ICTCC, ICTCC1, ICTCC2, ICTCC3, ICTCC4, ICTCC5, ICTCC6, ICTCC7, ICTCC8, ICTCC9, ICTDITRA, ICTDT1c, ICTDT1c1, ICTDT1c2, ICTDT1c3, ICTDT1c4, ICTDT1c5, ICTDT1tt, ICTDT3BIM, ICTDT3BIMtt, ICTDT3IDS, ICTDT3IDStt, ICTDT3SE, ICTDT3SEtt, ICTDTKS, ICTDTKSa, ICTDTKSb, ICTEP, ICTEP1, ICTEP2, ICTEP3, ICTEP4, ICTEP5, ICTESA1a, ICTESA1b, ICTESA1c, ICTESA1tt, ICTESA3a, ICTESA3a1, ICTESA3a2, ICTESA3a3, ICTESA3a4, ICTESA3a5, ICTESA3b, ICTESA3b1, ICTESA3b2, ICTESA3b3, ICTESA3b4, ICTESA3b5, ICTESA3tt, ICTFT, ICTFT1, ICTFT2, ICTFT3, ICTFT4, ICTGS, ICTGS1, ICTGS2, ICTGS3, ICTGS4, ICTGS5, ICTGS6, ICTGS7, ICTIDS1a, ICTIDS1b, ICTIDS1c, ICTIDS1d, ICTIDS1e, ICTIDS1tt, ICTIDS3a, ICTIDS3b, ICTIDS3c, ICTIDS3tt, ICTM1a, ICTM1a1, ICTM1a2, ICTM1a3, ICTM1a4, ICTM1a5, ICTM1b, ICTM1b1, ICTM1b2, ICTM1b3, ICTM1b4, ICTM1b5, ICTM1c, ICTM1c1, ICTM1c2, ICTM1c3, ICTM1c4, ICTM1c5, ICTM1d, ICTM1d1, ICTM1d2, ICTM1d3, ICTM1d4, ICTM1d5, ICTM1e, ICTM1e1, ICTM1e2, ICTM1e3, ICTM1e4, ICTM1e5, ICTM1f, ICTM1f1, ICTM1f2, ICTM1f3, ICTM1f4, ICTM1f5, ICTM1g, ICTM1g1, ICTM1g2, ICTM1g3, ICTM1g4, ICTM1g5, ICTM1h, ICTM1h1, ICTM1h2, ICTM1h3, ICTM1h4, ICTM1h5, ICTM1i, ICTM1i1, ICTM1i2, ICTM1i3, ICTM1i4, ICTM1i5, ICTM1j, ICTM1j1, ICTM1j2, ICTM1j3, ICTM1j4, ICTM1j5, ICTM1k, ICTM1k1, ICTM1k2, ICTM1k3, ICTM1k4, ICTM1k5, ICTM1l, ICTM1l1, ICTM1l2, ICTM1l3, ICTM1l4, ICTM1l5, ICTM1m, ICTM1m1, ICTM1m2, ICTM1m3, ICTM1m4, ICTM1m5, ICTM1n, ICTM1n1, ICTM1n2, ICTM1n3, ICTM1n4, ICTM1n5, ICTM1o, ICTM1o1, ICTM1o2, ICTM1o3, ICTM1o4, ICTM1o5, ICTM1p, ICTM1p1, ICTM1p2, ICTM1p3, ICTM1p4, ICTM1p5, ICTM1q, ICTM1q1, ICTM1q2, ICTM1q3, ICTM1q4, ICTM1q5, ICTM1tt, ICTMETI, ICTMS, ICTMS1, ICTMS2, ICTMS3, ICTMS4, ICTMS5, ICTMS6, ICTMS7, ICTMS8, ICTPV-7Ha, ICTPV-7Hb, ICTPV-CREAa, ICTPV-CREAb, ICTPV-CVBa, ICTPV-FMGTa, ICTPV-FMGTb, ICTPV-FMGTc, ICTPV-FMGTd, ICTPV-GESPa, ICTPV-GESPb, ICTPV-LGa, ICTPV-LGb, ICTPV-LGc, ICTPV-OOOa, ICTPV-P2a, ICTPV-P2b, ICTPV-PECa, ICTPV-PECb, ICTPV-RDa, ICTPV-RDb, ICTPV-RDc, ICTPV-RECHa, ICTPV-RECHb, ICTPV-RECHc, ICTPV-RECHd, ICTPV-STCa, ICTPV-STCb, ICTPV-TMGTa, ICTPV-TMGTb, ICTPV-TMGTc, ICTPVtt, ICTSE1a, ICTSE1a1, ICTSE1a2, ICTSE1a3, ICTSE1a4, ICTSE1a5, ICTSE1b, ICTSE1b1, ICTSE1b2, ICTSE1b3, ICTSE1b4, ICTSE1b5, ICTSE1c, ICTSE1c1, ICTSE1c2, ICTSE1c3, ICTSE1c4, ICTSE1c5, ICTSE1d, ICTSE1d1, ICTSE1d2, ICTSE1d3, ICTSE1d4, ICTSE1d5, ICTSE1e, ICTSE1e1, ICTSE1e2, ICTSE1e3, ICTSE1e4, ICTSE1e5, ICTSE1f, ICTSE1f1, ICTSE1f2, ICTSE1f3, ICTSE1f4, ICTSE1f5, ICTSE1g, ICTSE1g1, ICTSE1g2, ICTSE1g3, ICTSE1g4, ICTSE1g5, ICTSE1tt, ICTSE3a, ICTSE3a1, ICTSE3a2, ICTSE3a3, ICTSE3a4, ICTSE3a5, ICTSE3b, ICTSE3b1, ICTSE3b2, ICTSE3b3, ICTSE3b4, ICTSE3b5, ICTSE3c, ICTSE3c1, ICTSE3c2, ICTSE3c3, ICTSE3c4, ICTSE3c5, ICTSE3d, ICTSE3d1, ICTSE3d2, ICTSE3d3, ICTSE3d4, ICTSE3d5, ICTSE3tt, ICTSECENG, ICTSECENG1, ICTSECENG2, ICTSECENG3, ICT-st1, ICTWA, ICTWA1, ICTWA2, ICTWA3, ICTWA4, ICTWA5",
    "vaknaam": "",
    "vakcode": "",
    "docentnamen": [ "E. Adams", "A Bie, de", "FH Berg van Saparoea, van den", "AF Bouwland", "E.F. Berg, Van den", "HI Brandenburg", "PCM Bottenberg", "JC Brink", "M.A.H. Braam", "M.J.M. Berndsen", "PGF Bosman", "T.M. Boheemen, van", "EM Bezembinder", "A.J.G.G. Bongaerts", "E.S. Bodingius", "S Baints", "A Bloemert", "HN Bouwknegt", "DWM van Schooten-Delnaay", "PA Eerland", "WJ Eschbach", "EJ Gouma", "EL Graaf, de", "J. Graaff, de", "A.J. Gijsman", "E.R. Grendelman", "ER Gebben", "W.J. Goudriaan", "E. Gorter", "D Groot, de", "M Hettinga", "LJ Hoof, van", "HM Hoven", "J Spoelstra", "JR Hoeven, van der", "HG Hoop, de", "I Huiskes", "MJM Hendriks", "JJ Hilhorst", "JA Ingen, van", "B Jong, de", "ED Eenschoten-Jansen", "D Jonker", "HH Jager", "NAG Kruijf-Grevelink, de", "M. Selhorst-Koekkoek", "R.A.P. Kamerbeek", "EM Kroesen", "H. Kampen", "JH Kuin", "M Kip", "S Bosma-Kip", "A. Korevaar", "A Kuijt", "LGM Koot", "A. Lagerweij", "MH Leenders", "C.H.M. Berk-de Louw", "NW Mensen" ]
  },
  {
    "id": "cf9eecfe-a7b7-4cb1-a6d1-528cc67eca48",
    "lokaal": "",
    "starttijd": 1577089800000,
    "eindtijd": 1577140200000,
    "changed": false,
    "docentcode": null,
    "roosterdatum": "2019-12-23T00:00:00Z",
    "commentaar": "- Kerstvakantie",
    "status": false,
    "groepcode": "ICTPV-CREAb",
    "vaknaam": "",
    "vakcode": "",
    "docentnamen": []
  },
  {
    "id": "80be90b1-f14c-4137-9a11-fc499718f7bc",
    "lokaal": "",
    "starttijd": 1577176200000,
    "eindtijd": 1577226600000,
    "changed": false,
    "docentcode": null,
    "roosterdatum": "2019-12-24T00:00:00Z",
    "commentaar": "- Kerstvakantie",
    "status": false,
    "groepcode": "ICTPV-CREAb",
    "vaknaam": "",
    "vakcode": "",
    "docentnamen": []
  },
  {
    "id": "d1b0f93e-4207-4a8e-8398-d57e60327bfa",
    "lokaal": "",
    "starttijd": 1577262600000,
    "eindtijd": 1577313000000,
    "changed": false,
    "docentcode": null,
    "roosterdatum": "2019-12-25T00:00:00Z",
    "commentaar": "- Kerstvakantie",
    "status": false,
    "groepcode": "ICTPV-CREAb",
    "vaknaam": "",
    "vakcode": "",
    "docentnamen": []
  },
  {
    "id": "fd79ad71-6e23-45d8-9b27-395003accdd5",
    "lokaal": "",
    "starttijd": 1577349000000,
    "eindtijd": 1577399400000,
    "changed": false,
    "docentcode": null,
    "roosterdatum": "2019-12-26T00:00:00Z",
    "commentaar": "- Kerstvakantie",
    "status": false,
    "groepcode": "ICTPV-CREAb",
    "vaknaam": "",
    "vakcode": "",
    "docentnamen": []
  },
  {
    "id": "92d88a76-1d99-435b-a415-c05e8fb5a62a",
    "lokaal": "",
    "starttijd": 1577435400000,
    "eindtijd": 1577485800000,
    "changed": false,
    "docentcode": null,
    "roosterdatum": "2019-12-27T00:00:00Z",
    "commentaar": "- Kerstvakantie",
    "status": false,
    "groepcode": "ICTPV-CREAb",
    "vaknaam": "",
    "vakcode": "",
    "docentnamen": []
  },
  {
    "id": "6da7e37e-25d5-467b-b1d9-7fe6205b5562",
    "lokaal": "",
    "starttijd": 157752180000,
    [
      {
        "id": "d7ee5ad5-a34a-4504-99e3-83b4220d98c8",
        "lokaal": "T4.03",
        "starttijd": 1569249000000,
        "eindtijd": 1569256200000,
        "changed": false,
        "docentcode": null,
        "roosterdatum": "2019-09-23T00:00:00Z",
        "commentaar": "Hoorcollege - Creativiteit voor ICT",
        "status": false,
        "groepcode": "ICTPV-CREAb",
        "vaknaam": "Creativiteit voor ICT",
        "vakcode": "Creativiteit voor ICT",
        "docentnamen": [ "M. Verkuijl" ]
      },
      {
        "id": "b17e9dac-34a0-41e8-9a10-277040a35f36",
        "lokaal": "T4.32",
        "starttijd": 1569853800000,
        "eindtijd": 1569861000000,
        "changed": false,
        "docentcode": null,
        "roosterdatum": "2019-09-30T00:00:00Z",
        "commentaar": "Hoorcollege - Creativiteit voor ICT",
        "status": false,
        "groepcode": "ICTPV-CREAb",
        "vaknaam": "Creativiteit voor ICT",
        "vakcode": "Creativiteit voor ICT",
        "docentnamen": [ "M. Verkuijl" ]
      },
      {
        "id": "0e1614b2-1044-4d43-bfe9-3679fbc44d6e",
        "lokaal": "T4.17",
        "starttijd": 1570458600000,
        "eindtijd": 1570465800000,
        "changed": false,
        "docentcode": null,
        "roosterdatum": "2019-10-07T00:00:00Z",
        "commentaar": "Hoorcollege - Creativiteit voor ICT",
        "status": false,
        "groepcode": "ICTPV-CREAb",
        "vaknaam": "Creativiteit voor ICT",
        "vakcode": "Creativiteit voor ICT",
        "docentnamen": [ "M. Verkuijl" ]
      },
      {
        "id": "d441318e-e0ae-4f4c-a2bd-71dc6245b2e0",
        "lokaal": "T4.18",
        "starttijd": 1571041800000,
        "eindtijd": 1571049000000,
        "changed": false,
        "docentcode": null,
        "roosterdatum": "2019-10-14T00:00:00Z",
        "commentaar": "Hoorcollege - Creativiteit voor ICT",
        "status": false,
        "groepcode": "ICTPV-CREAb",
        "vaknaam": "Creativiteit voor ICT",
        "vakcode": "Creativiteit voor ICT",
        "docentnamen": [ "M. Verkuijl" ]
      },
      {
        "id": "2e5727e7-4a0a-4436-98c7-fc06917fe548",
        "lokaal": "",
        "starttijd": 1571646600000,
        "eindtijd": 1571697000000,
        "changed": false,
        "docentcode": null,
        "roosterdatum": "2019-10-21T00:00:00Z",
        "commentaar": "- Collegeluw",
        "status": false,
        "groepcode": "ICTPV-CREAb",
        "vaknaam": "",
        "vakcode": "",
        "docentnamen": []
      },
      {
        "id": "e06846b8-b38c-4918-aab9-911d84a344de",
        "lokaal": "",
        "starttijd": 1571733000000,
        "eindtijd": 1571783400000,
        "changed": false,
        "docentcode": null,
        "roosterdatum": "2019-10-22T00:00:00Z",
        "commentaar": "- Collegeluw",
        "status": false,
        "groepcode": "ICTPV-CREAb",
        "vaknaam": "",
        "vakcode": "",
        "docentnamen": []
      },
      {
        "id": "77c3f451-48d6-4054-a49b-264014077fb0",
        "lokaal": "",
        "starttijd": 1571819400000,
        "eindtijd": 1571869800000,
        "changed": false,
        "docentcode": null,
        "roosterdatum": "2019-10-23T00:00:00Z",
        "commentaar": "- Collegeluw",
        "status": false,
        "groepcode": "ICTPV-CREAb",
        "vaknaam": "",
        "vakcode": "",
        "docentnamen": []
      },
      {
        "id": "19a5fd6c-816a-498d-ba11-65d0c6509884",
        "lokaal": "",
        "starttijd": 1571905800000,
        "eindtijd": 1571956200000,
        "changed": false,
        "docentcode": null,
        "roosterdatum": "2019-10-24T00:00:00Z",
        "commentaar": "- Collegeluw",
        "status": false,
        "groepcode": "ICTPV-CREAb",
        "vaknaam": "",
        "vakcode": "",
        "docentnamen": []
      },
      {
        "id": "63858def-0517-4c78-b2da-45d5762a897e",
        "lokaal": "",
        "starttijd": 1571992200000,
        "eindtijd": 1572042600000,
        "changed": false,
        "docentcode": null,
        "roosterdatum": "2019-10-25T00:00:00Z",
        "commentaar": "- Collegeluw",
        "status": false,
        "groepcode": "ICTPV-CREAb",
        "vaknaam": "",
        "vakcode": "",
        "docentnamen": []
      },
      {
        "id": "c5d8f6a2-2d78-4cd2-9ee9-53bffef1ff33",
        "lokaal": "",
        "starttijd": 1572078600000,
        "eindtijd": 1572129000000,
        "changed": false,
        "docentcode": null,
        "roosterdatum": "2019-10-26T00:00:00Z",
        "commentaar": "- Collegeluw",
        "status": false,
        "groepcode": "ICTPV-CREAb",
        "vaknaam": "",
        "vakcode": "",
        "docentnamen": []
      },
      {
        "id": "f3d1a3c2-d8d2-4544-a6f6-70f4e1a4d12e",
        "lokaal": "",
        "starttijd": 1573201800000,
        "eindtijd": 1573237800000,
        "changed": false,
        "docentcode": null,
        "roosterdatum": "2019-11-08T00:00:00Z",
        "commentaar": "- Opendag",
        "status": false,
        "groepcode": "ICTBIM1a, ICTBIM1a1, ICTBIM1a2, ICTBIM1a3, ICTBIM1a4, ICTBIM1a5, ICTBIM1b, ICTBIM1b1, ICTBIM1b2, ICTBIM1b3, ICTBIM1b4, ICTBIM1b5, ICTBIM1b6, ICTBIM1c, ICTBIM1c1, ICTBIM1c2, ICTBIM1c3, ICTBIM1c4, ICTBIM1c5, ICTBIM1d, ICTBIM1d1, ICTBIM1d2, ICTBIM1d3, ICTBIM1d4, ICTBIM1d5, ICTBIM1tt, ICTBIM3a, ICTBIM3a1, ICTBIM3a2, ICTBIM3a3, ICTBIM3a4, ICTBIM3a5, ICTBIM3a6, ICTBIM3b, ICTBIM3b1, ICTBIM3b2, ICTBIM3b3, ICTBIM3b4, ICTBIM3b5, ICTBIM3b6, ICTBIM3tt, ICTCC, ICTCC1, ICTCC2, ICTCC3, ICTCC4, ICTCC5, ICTCC6, ICTCC7, ICTCC8, ICTCC9, ICTDITRA, ICTDT1c, ICTDT1c1, ICTDT1c2, ICTDT1c3, ICTDT1c4, ICTDT1c5, ICTDT1tt, ICTDT3BIM, ICTDT3BIMtt, ICTDT3IDS, ICTDT3IDStt, ICTDT3SE, ICTDT3SEtt, ICTDTKS, ICTDTKSa, ICTDTKSb, ICTEP, ICTEP1, ICTEP2, ICTEP3, ICTEP4, ICTEP5, ICTESA1a, ICTESA1b, ICTESA1c, ICTESA1tt, ICTESA3a, ICTESA3a1, ICTESA3a2, ICTESA3a3, ICTESA3a4, ICTESA3a5, ICTESA3b, ICTESA3b1, ICTESA3b2, ICTESA3b3, ICTESA3b4, ICTESA3b5, ICTESA3tt, ICTFT, ICTFT1, ICTFT2, ICTFT3, ICTFT4, ICTGS, ICTGS1, ICTGS2, ICTGS3, ICTGS4, ICTGS5, ICTGS6, ICTGS7, ICTIDS1a, ICTIDS1b, ICTIDS1c, ICTIDS1d, ICTIDS1e, ICTIDS1tt, ICTIDS3a, ICTIDS3b, ICTIDS3c, ICTIDS3tt, ICTM1a, ICTM1a1, ICTM1a2, ICTM1a3, ICTM1a4, ICTM1a5, ICTM1b, ICTM1b1, ICTM1b2, ICTM1b3, ICTM1b4, ICTM1b5, ICTM1c, ICTM1c1, ICTM1c2, ICTM1c3, ICTM1c4, ICTM1c5, ICTM1d, ICTM1d1, ICTM1d2, ICTM1d3, ICTM1d4, ICTM1d5, ICTM1e, ICTM1e1, ICTM1e2, ICTM1e3, ICTM1e4, ICTM1e5, ICTM1f, ICTM1f1, ICTM1f2, ICTM1f3, ICTM1f4, ICTM1f5, ICTM1g, ICTM1g1, ICTM1g2, ICTM1g3, ICTM1g4, ICTM1g5, ICTM1h, ICTM1h1, ICTM1h2, ICTM1h3, ICTM1h4, ICTM1h5, ICTM1i, ICTM1i1, ICTM1i2, ICTM1i3, ICTM1i4, ICTM1i5, ICTM1j, ICTM1j1, ICTM1j2, ICTM1j3, ICTM1j4, ICTM1j5, ICTM1k, ICTM1k1, ICTM1k2, ICTM1k3, ICTM1k4, ICTM1k5, ICTM1l, ICTM1l1, ICTM1l2, ICTM1l3, ICTM1l4, ICTM1l5, ICTM1m, ICTM1m1, ICTM1m2, ICTM1m3, ICTM1m4, ICTM1m5, ICTM1n, ICTM1n1, ICTM1n2, ICTM1n3, ICTM1n4, ICTM1n5, ICTM1o, ICTM1o1, ICTM1o2, ICTM1o3, ICTM1o4, ICTM1o5, ICTM1p, ICTM1p1, ICTM1p2, ICTM1p3, ICTM1p4, ICTM1p5, ICTM1q, ICTM1q1, ICTM1q2, ICTM1q3, ICTM1q4, ICTM1q5, ICTM1tt, ICTMETI, ICTMS, ICTMS1, ICTMS2, ICTMS3, ICTMS4, ICTMS5, ICTMS6, ICTMS7, ICTMS8, ICTPV-7Ha, ICTPV-7Hb, ICTPV-CREAa, ICTPV-CREAb, ICTPV-CVBa, ICTPV-FMGTa, ICTPV-FMGTb, ICTPV-FMGTc, ICTPV-FMGTd, ICTPV-GESPa, ICTPV-GESPb, ICTPV-LGa, ICTPV-LGb, ICTPV-LGc, ICTPV-OOOa, ICTPV-P2a, ICTPV-P2b, ICTPV-PECa, ICTPV-PECb, ICTPV-RDa, ICTPV-RDb, ICTPV-RDc, ICTPV-RECHa, ICTPV-RECHb, ICTPV-RECHc, ICTPV-RECHd, ICTPV-STCa, ICTPV-STCb, ICTPV-TMGTa, ICTPV-TMGTb, ICTPV-TMGTc, ICTPVtt, ICTSE1a, ICTSE1a1, ICTSE1a2, ICTSE1a3, ICTSE1a4, ICTSE1a5, ICTSE1b, ICTSE1b1, ICTSE1b2, ICTSE1b3, ICTSE1b4, ICTSE1b5, ICTSE1c, ICTSE1c1, ICTSE1c2, ICTSE1c3, ICTSE1c4, ICTSE1c5, ICTSE1d, ICTSE1d1, ICTSE1d2, ICTSE1d3, ICTSE1d4, ICTSE1d5, ICTSE1e, ICTSE1e1, ICTSE1e2, ICTSE1e3, ICTSE1e4, ICTSE1e5, ICTSE1f, ICTSE1f1, ICTSE1f2, ICTSE1f3, ICTSE1f4, ICTSE1f5, ICTSE1g, ICTSE1g1, ICTSE1g2, ICTSE1g3, ICTSE1g4, ICTSE1g5, ICTSE1tt, ICTSE3a, ICTSE3a1, ICTSE3a2, ICTSE3a3, ICTSE3a4, ICTSE3a5, ICTSE3b, ICTSE3b1, ICTSE3b2, ICTSE3b3, ICTSE3b4, ICTSE3b5, ICTSE3c, ICTSE3c1, ICTSE3c2, ICTSE3c3, ICTSE3c4, ICTSE3c5, ICTSE3d, ICTSE3d1, ICTSE3d2, ICTSE3d3, ICTSE3d4, ICTSE3d5, ICTSE3tt, ICTSECENG, ICTSECENG1, ICTSECENG2, ICTSECENG3, ICT-st1, ICTWA, ICTWA1, ICTWA2, ICTWA3, ICTWA4, ICTWA5",
        "vaknaam": "",
        "vakcode": "",
        "docentnamen": [ "E. Adams", "A Bie, de", "FH Berg van Saparoea, van den", "AF Bouwland", "E.F. Berg, Van den", "HI Brandenburg", "PCM Bottenberg", "JC Brink", "M.A.H. Braam", "M.J.M. Berndsen", "PGF Bosman", "T.M. Boheemen, van", "EM Bezembinder", "A.J.G.G. Bongaerts", "E.S. Bodingius", "S Baints", "A Bloemert", "HN Bouwknegt", "DWM van Schooten-Delnaay", "PA Eerland", "WJ Eschbach", "EJ Gouma", "EL Graaf, de", "J. Graaff, de", "A.J. Gijsman", "E.R. Grendelman", "ER Gebben", "W.J. Goudriaan", "E. Gorter", "D Groot, de", "M Hettinga", "LJ Hoof, van", "HM Hoven", "J Spoelstra", "JR Hoeven, van der", "HG Hoop, de", "I Huiskes", "MJM Hendriks", "JJ Hilhorst", "JA Ingen, van", "B Jong, de", "ED Eenschoten-Jansen", "D Jonker", "HH Jager", "NAG Kruijf-Grevelink, de", "M. Selhorst-Koekkoek", "R.A.P. Kamerbeek", "EM Kroesen", "H. Kampen", "JH Kuin", "M Kip", "S Bosma-Kip", "A. Korevaar", "A Kuijt", "LGM Koot", "A. Lagerweij", "MH Leenders", "C.H.M. Berk-de Louw", "NW Mensen" ]
      },
      {
        "id": "cf9eecfe-a7b7-4cb1-a6d1-528cc67eca48",
        "lokaal": "",
        "starttijd": 1577089800000,
        "eindtijd": 1577140200000,
        "changed": false,
        "docentcode": null,
        "roosterdatum": "2019-12-23T00:00:00Z",
        "commentaar": "- Kerstvakantie",
        "status": false,
        "groepcode": "ICTPV-CREAb",
        "vaknaam": "",
        "vakcode": "",
        "docentnamen": []
      },
      {
        "id": "80be90b1-f14c-4137-9a11-fc499718f7bc",
        "lokaal": "",
        "starttijd": 1577176200000,
        "eindtijd": 1577226600000,
        "changed": false,
        "docentcode": null,
        "roosterdatum": "2019-12-24T00:00:00Z",
        "commentaar": "- Kerstvakantie",
        "status": false,
        "groepcode": "ICTPV-CREAb",
        "vaknaam": "",
        "vakcode": "",
        "docentnamen": []
      },
      {
        "id": "d1b0f93e-4207-4a8e-8398-d57e60327bfa",
        "lokaal": "",
        "starttijd": 1577262600000,
        "eindtijd": 1577313000000,
        "changed": false,
        "docentcode": null,
        "roosterdatum": "2019-12-25T00:00:00Z",
        "commentaar": "- Kerstvakantie",
        "status": false,
        "groepcode": "ICTPV-CREAb",
        "vaknaam": "",
        "vakcode": "",
        "docentnamen": []
      },
      {
        "id": "fd79ad71-6e23-45d8-9b27-395003accdd5",
        "lokaal": "",
        "starttijd": 1577349000000,
        "eindtijd": 1577399400000,
        "changed": false,
        "docentcode": null,
        "roosterdatum": "2019-12-26T00:00:00Z",
        "commentaar": "- Kerstvakantie",
        "status": false,
        "groepcode": "ICTPV-CREAb",
        "vaknaam": "",
        "vakcode": "",
        "docentnamen": []
      },
      {
        "id": "92d88a76-1d99-435b-a415-c05e8fb5a62a",
        "lokaal": "",
        "starttijd": 1577435400000,
        "eindtijd": 1577485800000,
        "changed": false,
        "docentcode": null,
        "roosterdatum": "2019-12-27T00:00:00Z",
        "commentaar": "- Kerstvakantie",
        "status": false,
        "groepcode": "ICTPV-CREAb",
        "vaknaam": "",
        "vakcode": "",
        "docentnamen": []
      },
      {
        "id": "6da7e37e-25d5-467b-b1d9-7fe6205b5562",
        "lokaal": "",
        "starttijd": 1577521800000,
        "eindtijd": 1577572200000,
        "changed": false,
        "docentcode": null,
        "roosterdatum": "2019-12-28T00:00:00Z",
        "commentaar": "- Kerstvakantie",
        "status": false,
        "groepcode": "ICTPV-CREAb",
        "vaknaam": "",
        "vakcode": "",
        "docentnamen": []
      },
      {
        "id": "ece9bf89-0c98-4664-9c07-05d945028992",
        "lokaal": "",
        "starttijd": 1577694600000,
        "eindtijd": 1577745000000,
        "changed": false,
        "docentcode": null,
        "roosterdatum": "2019-12-30T00:00:00Z",
        "commentaar": "- Kerstvakantie",
        "status": false,
        "groepcode": "ICTPV-CREAb",
        "vaknaam": "",
        "vakcode": "",
        "docentnamen": []
      },
      {
        "id": "39e417eb-5122-463b-9658-30a811562fca",
        "lokaal": "",
        "starttijd": 1577781000000,
        "eindtijd": 1577831400000,
        "changed": false,
        "docentcode": null,
        "roosterdatum": "2019-12-31T00:00:00Z",
        "commentaar": "- Kerstvakantie",
        "status": false,
        "groepcode": "ICTPV-CREAb",
        "vaknaam": "",
        "vakcode": "",
        "docentnamen": []
      },
      {
        "id": "b3f02017-f2d8-44a3-8467-04a24e8854bf",
        "lokaal": "",
        "starttijd": 1577867400000,
        "eindtijd": 1577917800000,
        "changed": false,
        "docentcode": null,
        "roosterdatum": "2020-01-01T00:00:00Z",
        "commentaar": "- Kerstvakantie",
        "status": false,
        "groepcode": "ICTPV-CREAb",
        "vaknaam": "",
        "vakcode": "",
        "docentnamen": []
      },
      {
        "id": "e7824d4c-1087-4afd-ace2-9fc390421abb",
        "lokaal": "",
        "starttijd": 1577953800000,
        "eindtijd": 1578004200000,
        "changed": false,
        "docentcode": null,
        "roosterdatum": "2020-01-02T00:00:00Z",
        "commentaar": "- Kerstvakantie",
        "status": false,
        "groepcode": "ICTPV-CREAb",
        "vaknaam": "",
        "vakcode": "",
        "docentnamen": []
      },
      {
        "id": "34152c16-2f2e-414d-948f-a03116ec47e4",
        "lokaal": "",
        "starttijd": 1578040200000,
        "eindtijd": 1578090600000,
        "changed": false,
        "docentcode": null,
        "roosterdatum": "2020-01-03T00:00:00Z",
        "commentaar": "- Kerstvakantie",
        "status": false,
        "groepcode": "ICTPV-CREAb",
        "vaknaam": "",
        "vakcode": "",
        "docentnamen": []
      },
      {
        "id": "6d428daa-a50d-4bae-a619-902c63ca1f58",
        "lokaal": "",
        "starttijd": 1578126600000,
        "eindtijd": 1578177000000,
        "changed": false,
        "docentcode": null,
        "roosterdatum": "2020-01-04T00:00:00Z",
        "commentaar": "- Kerstvakantie",
        "status": false,
        "groepcode": "ICTPV-CREAb",
        "vaknaam": "",
        "vakcode": "",
        "docentnamen": []
      },
      {
        "id": "86cfbd11-8226-4e1b-8195-ddf3f744142a",
        "lokaal": "",
        "starttijd": 1590049800000,
        "eindtijd": 1590100200000,
        "changed": false,
        "docentcode": null,
        "roosterdatum": "2020-05-21T00:00:00Z",
        "commentaar": "- Hemelvaart",
        "status": false,
        "groepcode": "ICTPV-CREAb",
        "vaknaam": "",
        "vakcode": "",
        "docentnamen": []
      },
      {
        "id": "117225e7-f2b4-4a27-8818-e2a29d26d5c8",
        "lokaal": "",
        "starttijd": 1590136200000,
        "eindtijd": 1590186600000,
        "changed": false,
        "docentcode": null,
        "roosterdatum": "2020-05-22T00:00:00Z",
        "commentaar": "- Hemelvaart",
        "status": false,
        "groepcode": "ICTPV-CREAb",
        "vaknaam": "",
        "vakcode": "",
        "docentnamen": []
      }
    ],
    
    
    
    
    
    
    
    
    
    
    
    
    
    
    
    
    
    
    
    
    
    
    
    
    
    
    
    
    
    
    
    
    
    
    
    
    
    
    
    
    
    
    
    
    
    
    
    
    
    
    
    
    
    
    
    
    
    
    
    
    
    
    
    
    
    
    
    
    
    
    
    
    
    
    
    
    
    
    
    
    
    ......................0,
    "eindtijd": 1577572200000,
    "changed": false,
    "docentcode": null,
    "roosterdatum": "2019-12-28T00:00:00Z",
    "commentaar": "- Kerstvakantie",
    "status": false,
    "groepcode": "ICTPV-CREAb",
    "vaknaam": "",
    "vakcode": "",
    "docentnamen": []
  },
  {
    "id": "ece9bf89-0c98-4664-9c07-05d945028992",
    "lokaal": "",
    "starttijd": 1577694600000,
    "eindtijd": 1577745000000,
    "changed": false,
    "docentcode": null,
    "roosterdatum": "2019-12-30T00:00:00Z",
    "commentaar": "- Kerstvakantie",
    "status": false,
    "groepcode": "ICTPV-CREAb",
    "vaknaam": "",
    "vakcode": "",
    "docentnamen": []
  },
  {
    "id": "39e417eb-5122-463b-9658-30a811562fca",
    "lokaal": "",
    "starttijd": 1577781000000,
    "eindtijd": 1577831400000,
    "changed": false,
    "docentcode": null,
    "roosterdatum": "2019-12-31T00:00:00Z",
    "commentaar": "- Kerstvakantie",
    "status": false,
    "groepcode": "ICTPV-CREAb",
    "vaknaam": "",
    "vakcode": "",
    "docentnamen": []
  },
  {
    "id": "b3f02017-f2d8-44a3-8467-04a24e8854bf",
    "lokaal": "",
    "starttijd": 1577867400000,
    "eindtijd": 1577917800000,
    "changed": false,
    "docentcode": null,
    "roosterdatum": "2020-01-01T00:00:00Z",
    "commentaar": "- Kerstvakantie",
    "status": false,
    "groepcode": "ICTPV-CREAb",
    "vaknaam": "",
    "vakcode": "",
    "docentnamen": []
  },
  {
    "id": "e7824d4c-1087-4afd-ace2-9fc390421abb",
    "lokaal": "",
    "starttijd": 1577953800000,
    "eindtijd": 1578004200000,
    "changed": false,
    "docentcode": null,
    "roosterdatum": "2020-01-02T00:00:00Z",
    "commentaar": "- Kerstvakantie",
    "status": false,
    "groepcode": "ICTPV-CREAb",
    "vaknaam": "",
    "vakcode": "",
    "docentnamen": []
  },
  {
    "id": "34152c16-2f2e-414d-948f-a03116ec47e4",
    "lokaal": "",
    "starttijd": 1578040200000,
    "eindtijd": 1578090600000,
    "changed": false,
    "docentcode": null,
    "roosterdatum": "2020-01-03T00:00:00Z",
    "commentaar": "- Kerstvakantie",
    "status": false,
    "groepcode": "ICTPV-CREAb",
    "vaknaam": "",
    "vakcode": "",
    "docentnamen": []
  },
  {
    "id": "6d428daa-a50d-4bae-a619-902c63ca1f58",
    "lokaal": "",
    "starttijd": 1578126600000,
    "eindtijd": 1578177000000,
    "changed": false,
    "docentcode": null,
    "roosterdatum": "2020-01-04T00:00:00Z",
    "commentaar": "- Kerstvakantie",
    "status": false,
    "groepcode": "ICTPV-CREAb",
    "vaknaam": "",
    "vakcode": "",
    "docentnamen": []
  },
  {
    "id": "86cfbd11-8226-4e1b-8195-ddf3f744142a",
    "lokaal": "",
    "starttijd": 1590049800000,
    "eindtijd": 1590100200000,
    "changed": false,
    "docentcode": null,
    "roosterdatum": "2020-05-21T00:00:00Z",
    "commentaar": "- Hemelvaart",
    "status": false,
    "groepcode": "ICTPV-CREAb",
    "vaknaam": "",
    "vakcode": "",
    "docentnamen": []
  },
  {
    "id": "117225e7-f2b4-4a27-8818-e2a29d26d5c8",
    "lokaal": "",
    "starttijd": 1590136200000,
    "eindtijd": 1590186600000,
    "changed": false,
    "docentcode": null,
    "roosterdatum": "2020-05-22T00:00:00Z",
    "commentaar": "- Hemelvaart",
    "status": false,
    "groepcode": "ICTPV-CREAb",
    "vaknaam": "",
    "vakcode": "",
    "docentnamen": []
  }
]